<svg width="21" height="21" viewBox="0 0 21 21" fill="none" xmlns="http://www.w3.org/2000/svg">
<path fill-rule="evenodd" clip-rule="evenodd" d="M4.71073 0.0830078H16.2941C18.9327 0.173571 21.001 2.38155 20.9191 5.02051V11.8122C20.9583 13.0867 20.4879 14.3243 19.612 15.2509C18.7362 16.1776 17.5271 16.717 16.2524 16.7497H6.33573C5.64946 16.7639 4.99866 17.0573 4.53364 17.5622L2.06489 20.1976C1.85574 20.4257 1.56184 20.5576 1.25239 20.5622C0.932787 20.554 0.629698 20.4185 0.410581 20.1857C0.191463 19.9528 0.0745012 19.6421 0.0857252 19.3226V5.02051C0.00381678 2.38155 2.07205 0.173571 4.71073 0.0830078ZM16.2941 15.1872C18.07 15.0973 19.4391 13.5885 19.3566 11.8122V5.02051C19.4391 3.24417 18.07 1.73537 16.2941 1.64551H4.71072C2.93474 1.73537 1.56564 3.24417 1.64822 5.02051V18.3538L3.34614 16.4997C4.12262 15.6737 5.20214 15.1998 6.33572 15.1872H16.2941Z" fill="white"/>
<path d="M6.59619 7.11426H11.8045C12.236 7.11426 12.5858 6.76448 12.5858 6.33301C12.5858 5.90154 12.236 5.55176 11.8045 5.55176H6.59619C6.16472 5.55176 5.81494 5.90154 5.81494 6.33301C5.81494 6.76448 6.16472 7.11426 6.59619 7.11426Z" fill="white"/>
<path d="M14.4087 9.71875H6.59619C6.16472 9.71875 5.81494 10.0685 5.81494 10.5C5.81494 10.9315 6.16472 11.2812 6.59619 11.2812H14.4087C14.8402 11.2812 15.1899 10.9315 15.1899 10.5C15.1899 10.0685 14.8402 9.71875 14.4087 9.71875Z" fill="white"/>
</svg>
