<svg width="60" height="64" viewBox="0 0 60 64" fill="none" xmlns="http://www.w3.org/2000/svg">
<path d="M49.8618 63.8515H2.03335C2.03335 63.8515 -0.600288 41.5314 0.639384 37.5788C2.11848 32.8824 13.0202 28.0482 18.1145 25.8112H18.1305C20.3145 24.8528 21.8335 24.2969 21.8335 24.2969L35.0762 24.6093C36.6196 24.9987 38.1313 25.5031 39.5986 26.1183C44.1024 27.9715 50.5056 31.7281 51.7559 38.3095C53.7139 48.6529 49.8618 63.8515 49.8618 63.8515Z" fill="#ED6710"/>
<path d="M31.1364 63.986C31.1004 63.986 31.0659 63.9718 31.0404 63.9465C31.015 63.9212 31.0007 63.8868 31.0007 63.851V42.4072C31 42.373 31.0124 42.3399 31.0353 42.3145L43.4693 28.4607C43.4806 28.445 43.4951 28.4319 43.5119 28.4221C43.5287 28.4124 43.5473 28.4062 43.5666 28.4041C43.5859 28.402 43.6055 28.404 43.624 28.4099C43.6425 28.4158 43.6595 28.4256 43.674 28.4385C43.6884 28.4514 43.7 28.4672 43.7079 28.4848C43.7158 28.5024 43.72 28.5216 43.72 28.5409C43.72 28.5602 43.7159 28.5793 43.708 28.597C43.7001 28.6147 43.6885 28.6305 43.6741 28.6434L31.2747 42.4575V63.859C31.2726 63.8938 31.2571 63.9266 31.2313 63.9503C31.2055 63.974 31.1715 63.9868 31.1364 63.986Z" fill="white"/>
<path d="M25.0763 63.986C25.0583 63.9864 25.0404 63.9831 25.0236 63.9765C25.0068 63.9699 24.9916 63.96 24.9787 63.9474C24.9658 63.9348 24.9556 63.9198 24.9486 63.9033C24.9416 63.8867 24.938 63.8689 24.938 63.851V42.4495L12.5386 28.6354C12.5266 28.6222 12.5172 28.6068 12.5112 28.59C12.5051 28.5732 12.5025 28.5554 12.5033 28.5375C12.5042 28.5197 12.5086 28.5022 12.5162 28.4861C12.5239 28.47 12.5347 28.4555 12.5479 28.4435C12.5612 28.4315 12.5767 28.4222 12.5936 28.4162C12.6105 28.4102 12.6284 28.4075 12.6463 28.4084C12.6642 28.4092 12.6818 28.4136 12.698 28.4212C12.7142 28.4288 12.7287 28.4395 12.7408 28.4527L25.1774 42.3065C25.1993 42.3326 25.2115 42.3653 25.212 42.3992V63.843C25.2131 63.8614 25.2104 63.8799 25.2041 63.8972C25.1977 63.9145 25.1879 63.9303 25.1752 63.9437C25.1625 63.9571 25.1472 63.9677 25.1302 63.975C25.1132 63.9823 25.0948 63.986 25.0763 63.986Z" fill="white"/>
<path d="M39.6066 26.1103L28.2607 37.5788L18.1145 25.8112H18.1305C20.3145 24.8528 21.8335 24.2969 21.8335 24.2969L35.0762 24.6093C36.6221 24.9958 38.1365 25.4975 39.6066 26.1103Z" fill="#231F20"/>
<path d="M26.5395 29.329L27.5956 30.9333L26.5395 35.5821L28.2607 37.5783L30.0723 35.6351L28.8592 30.9333L30.0723 29.329L28.2607 28.2383L26.5395 29.329Z" fill="#ED6710"/>
<path d="M42.8414 63.8509C42.8414 63.8509 44.2035 36.2095 45.5496 36.4637C50.0454 37.3135 45.5363 60.6184 45.5363 63.8509H42.8414Z" fill="#231F20"/>
<path d="M32.6128 1.34073L32.6474 1.36721C32.8709 1.52075 33.653 2.42616 33.8498 2.4394C36.2441 2.51088 38.2073 3.84516 38.5957 6.22781C38.7633 7.26029 38.7686 8.32984 39.1065 9.32261C39.7769 11.2976 41.7162 12.8675 41.6603 14.951C41.6337 15.9331 41.1469 16.8571 41.0963 17.8393C41.0272 19.1259 41.6789 20.4734 42.8415 21.04H14.893C14.3796 21.0717 13.8635 21.0744 13.35 21.1061C14.7892 20.4655 15.3106 18.697 15.4091 17.1351C15.5075 15.5731 15.3718 13.9026 16.1353 12.5286C16.835 11.2737 18.1864 10.4716 18.8647 9.20613C19.5431 7.94067 19.4553 6.38665 19.9288 5.0206C21.2589 1.13159 27.1647 -0.594509 30.7932 0.459152C31.4428 0.655498 32.0569 0.953049 32.6128 1.34073Z" fill="white"/>
<path d="M13.35 21.2441C13.3194 21.2443 13.2896 21.2342 13.2654 21.2155C13.2413 21.1968 13.2242 21.1704 13.217 21.1408C13.2086 21.1095 13.2118 21.0763 13.2259 21.0471C13.2401 21.0179 13.2643 20.9948 13.2942 20.982C14.8478 20.291 15.2016 18.2657 15.2734 17.1221C15.292 16.8017 15.3027 16.4735 15.3133 16.1478C15.3532 14.885 15.3931 13.5772 16.0156 12.4574C16.3961 11.842 16.8588 11.281 17.3909 10.7895C17.9189 10.3047 18.3748 9.74757 18.745 9.13489C19.1307 8.4148 19.2611 7.61529 19.3968 6.76812C19.4778 6.15976 19.6104 5.5593 19.7931 4.97319C20.4183 3.14385 22.0703 1.64278 24.4459 0.761196C26.5954 -0.0330207 28.9816 -0.205101 30.8305 0.329672C31.4957 0.532192 32.1242 0.838705 32.6927 1.23773L32.6155 1.34892L32.7086 1.24567L32.7299 1.2642C32.8888 1.3946 33.0382 1.53616 33.1768 1.68778C33.384 1.92028 33.6159 2.12976 33.8685 2.31257C36.4862 2.38934 38.3536 3.88247 38.7341 6.21217C38.7873 6.55633 38.8272 6.90579 38.8644 7.24465C38.9144 7.93746 39.0402 8.62277 39.2395 9.28844C39.5416 10.0615 39.9373 10.7949 40.418 11.4725C41.115 12.55 41.8359 13.6646 41.7987 14.9644C41.7643 15.4763 41.6679 15.9821 41.5114 16.4708C41.3744 16.9191 41.2852 17.3806 41.2453 17.8474C41.1788 19.142 41.8652 20.4048 42.916 20.9184C42.9437 20.932 42.966 20.9547 42.9791 20.9826C42.9921 21.0105 42.9952 21.0421 42.9878 21.072C42.9811 21.1021 42.9643 21.129 42.9401 21.1483C42.9159 21.1675 42.8858 21.178 42.8548 21.1779H14.893C14.6429 21.1938 14.3849 21.2017 14.1242 21.2096C13.8635 21.2176 13.6134 21.2255 13.358 21.2441H13.35ZM28.3166 0.244955C24.555 0.244955 20.9264 2.50847 20.0512 5.06056C19.8752 5.63326 19.7471 6.21944 19.6681 6.81313C19.5351 7.64441 19.4021 8.50481 18.9871 9.26461C18.6049 9.90124 18.1328 10.4799 17.5851 10.9828C17.0719 11.4572 16.6246 11.9976 16.255 12.5897C15.6671 13.6487 15.6245 14.9247 15.5873 16.1558C15.5873 16.4867 15.566 16.815 15.5474 17.1406C15.4782 18.2154 15.1696 20.0315 13.906 20.9449H14.1162C14.3822 20.9449 14.627 20.929 14.8823 20.9131H42.3493C41.8818 20.5543 41.5103 20.0865 41.2676 19.5509C41.025 19.0152 40.9186 18.4284 40.958 17.8422C41.0013 17.3523 41.0977 16.8686 41.2453 16.3993C41.3913 15.9279 41.4806 15.4409 41.5114 14.9486C41.5459 13.7334 40.8782 12.7036 40.1812 11.6128C39.6885 10.9161 39.2829 10.1622 38.9735 9.36786C38.7683 8.68314 38.6381 7.97838 38.5851 7.26583C38.5478 6.92961 38.5106 6.58545 38.4574 6.24923C38.1009 4.0572 36.3292 2.64879 33.8445 2.57731C33.6823 2.57731 33.4561 2.35757 32.9746 1.87045C32.8461 1.73273 32.7102 1.60193 32.5676 1.47864L32.5304 1.45216C31.986 1.07105 31.3844 0.777986 30.748 0.583821C29.9575 0.357803 29.139 0.243727 28.3166 0.244955Z" fill="#231F20"/>
<path d="M23.2754 13.2863C22.8551 10.8454 18.7689 10.2868 19.003 13.1698C19.0828 14.1573 19.4127 15.1633 20.1203 15.8649C20.828 16.5664 21.9586 16.8868 22.863 16.4711" fill="white"/>
<path d="M21.9878 16.7913C21.2486 16.7804 20.5429 16.482 20.0219 15.96C19.1866 15.1314 18.9312 13.9904 18.8647 13.1803C18.7529 11.8063 19.5856 11.208 20.4023 11.1047C21.6233 10.9512 23.1583 11.801 23.411 13.265C23.4141 13.2826 23.4136 13.3005 23.4096 13.3179C23.4056 13.3353 23.3983 13.3517 23.3879 13.3662C23.3775 13.3808 23.3643 13.3931 23.3491 13.4025C23.3339 13.412 23.317 13.4183 23.2993 13.4212C23.2816 13.4246 23.2634 13.4244 23.2458 13.4206C23.2282 13.4168 23.2116 13.4095 23.1969 13.3991C23.1822 13.3887 23.1698 13.3754 23.1604 13.3601C23.1511 13.3448 23.1449 13.3277 23.1423 13.31C22.9136 11.9863 21.5462 11.2397 20.4369 11.3774C19.543 11.4886 19.0589 12.1557 19.1387 13.1591C19.1999 13.9215 19.4393 14.9964 20.2028 15.7668C20.921 16.4789 21.9878 16.7172 22.7939 16.3465C22.8262 16.3359 22.8613 16.3375 22.8925 16.3511C22.9237 16.3647 22.9488 16.3892 22.963 16.42C22.9772 16.4508 22.9794 16.4858 22.9693 16.5181C22.9592 16.5505 22.9375 16.578 22.9082 16.5954C22.6189 16.7249 22.3051 16.7917 21.9878 16.7913Z" fill="#231F20"/>
<path d="M33.4428 13.35C33.8099 10.8986 37.8828 10.2526 37.7125 13.1356C37.6932 14.1396 37.3161 15.1042 36.6484 15.8571C35.9567 16.5719 34.8341 16.9161 33.919 16.5243" fill="white"/>
<path d="M34.7543 16.826C34.4508 16.8275 34.1502 16.7672 33.8711 16.6486C33.8358 16.6342 33.8077 16.6065 33.793 16.5715C33.7783 16.5365 33.7782 16.4971 33.7926 16.462C33.8071 16.4269 33.835 16.3989 33.8701 16.3843C33.9053 16.3696 33.9449 16.3695 33.9802 16.3839C34.7969 16.736 35.8556 16.4739 36.5579 15.7485C37.3188 14.9543 37.5316 13.8953 37.5768 13.1011C37.6353 12.0978 37.1352 11.4412 36.2467 11.3486C35.148 11.2347 33.7833 12.0263 33.5864 13.342C33.5883 13.3628 33.5853 13.3837 33.5779 13.4031C33.5704 13.4225 33.5586 13.4401 33.5434 13.4543C33.5281 13.4686 33.5099 13.4792 33.4899 13.4854C33.4699 13.4916 33.4488 13.4932 33.4281 13.4901C33.4074 13.4871 33.3877 13.4793 33.3705 13.4676C33.3532 13.4558 33.3389 13.4403 33.3285 13.4222C33.3181 13.4042 33.312 13.384 33.3106 13.3632C33.3092 13.3424 33.3126 13.3216 33.3204 13.3023C33.5412 11.833 35.0576 10.9514 36.2813 11.0785C37.098 11.1632 37.9439 11.743 37.8774 13.1197C37.8295 13.9298 37.6114 15.0761 36.7814 15.9232C36.5227 16.2027 36.2096 16.4268 35.8611 16.582C35.5126 16.7372 35.136 16.8202 34.7543 16.826Z" fill="#231F20"/>
<path d="M32.094 24.7734C32.094 24.7734 29.8328 28.2733 28.2606 28.2389C26.6884 28.2045 24.938 25.0038 24.938 25.0038L25.0364 23.2909L25.2679 19.3198L25.4887 15.6135L31.8972 15.542L32.1446 18.5785L32.2191 19.5634L32.094 24.7734Z" fill="white"/>
<path d="M28.2819 28.3759H28.258C26.6246 28.3388 24.8901 25.199 24.8156 25.0667C24.8051 25.0443 24.7996 25.0199 24.7997 24.9952L25.3504 15.5864C25.3524 15.5517 25.3675 15.5191 25.3926 15.495C25.4178 15.471 25.4511 15.4573 25.486 15.4566L31.8945 15.3878C31.9294 15.3864 31.9634 15.3986 31.9893 15.4219C32.0152 15.4451 32.0308 15.4776 32.0329 15.5122L32.3574 19.5336L32.2324 24.7755C32.2319 24.8008 32.2246 24.8255 32.2111 24.8469C32.118 24.9899 29.91 28.3759 28.2819 28.3759ZM25.0764 24.9714C25.2679 25.3076 26.872 28.0715 28.2686 28.1006H28.2899C29.6892 28.1006 31.7349 25.072 31.9637 24.7278L32.0887 19.5389L31.7748 15.6578L25.6217 15.7267L25.0764 24.9714Z" fill="#231F20"/>
<path d="M32.2191 19.5579C31.7142 20.4266 30.9979 21.1549 30.1361 21.6759C28.7688 22.5654 26.715 23.5661 25.0364 23.2934L25.2679 19.3223C26.4949 19.4877 27.7386 19.4877 28.9656 19.3223C30.0457 19.2005 31.1576 19.0576 32.1446 18.5811L32.2191 19.5579Z" fill="#231F20"/>
<path d="M25.6296 23.4673C25.4238 23.4688 25.2182 23.4528 25.0151 23.4197C24.9829 23.4145 24.9539 23.3974 24.9337 23.372C24.9135 23.3465 24.9036 23.3144 24.9061 23.282L25.1375 19.3109C25.1377 19.2929 25.1421 19.2751 25.1505 19.259C25.1588 19.2429 25.1707 19.229 25.1854 19.2183C25.1997 19.2065 25.2163 19.1978 25.2342 19.1928C25.252 19.1878 25.2708 19.1865 25.2891 19.1892C26.5036 19.355 27.7352 19.355 28.9496 19.1892C29.9525 19.078 31.0911 18.9535 32.0861 18.4611C32.105 18.4514 32.1259 18.4463 32.1472 18.4463C32.1685 18.4463 32.1895 18.4514 32.2084 18.4611C32.2275 18.4712 32.2437 18.4859 32.2553 18.504C32.267 18.5221 32.2737 18.5429 32.2749 18.5644L32.3521 19.5492C32.3535 19.574 32.3479 19.5988 32.3361 19.6207C31.8242 20.515 31.0917 21.2649 30.2079 21.7995C29.189 22.4454 27.3349 23.4673 25.6296 23.4673ZM25.1774 23.1761C26.9199 23.3959 28.9789 22.2681 30.0643 21.5639C30.8985 21.0591 31.5926 20.3547 32.0834 19.5148L32.0275 18.7603C31.0353 19.2024 29.9472 19.3242 28.9789 19.4301C27.7899 19.5934 26.5847 19.6041 25.3929 19.4618L25.1774 23.1761Z" fill="#231F20"/>
<path d="M28.9576 20.2088H28.3005C26.8066 20.2251 25.3674 19.6502 24.2993 18.6106C23.2313 17.571 22.6218 16.1519 22.605 14.6652C22.5917 13.4818 22.5757 10.4082 22.5624 9.2248C22.5624 9.2248 22.448 8.7218 24.1798 8.75092C24.4459 7.83757 24.8023 7.26044 25.079 6.34974C25.0764 6.9662 25.1451 7.58092 25.2838 8.18173C25.2994 8.29231 25.3497 8.39516 25.4275 8.47559C25.5444 8.5495 25.6856 8.57515 25.8212 8.54707L29.2795 8.26645C29.5034 7.35153 29.862 6.47458 30.3436 5.66406C30.4287 6.39739 30.4899 7.46429 30.575 8.19497C31.2052 8.23252 31.8373 8.22544 32.4665 8.17379C32.4 8.13937 32.9028 6.6886 32.9985 6.58535C33.1154 7.04941 33.1858 7.52384 33.2087 8.00171C33.2087 8.00171 34.0068 8.14202 34.3473 8.19232C34.6293 9.27245 34.717 13.0317 34.5282 14.5196C34.1398 17.6117 32.0701 20.1744 28.9576 20.2088Z" fill="white"/>
<path d="M28.2367 20.3515C26.7176 20.3516 25.2599 19.7552 24.18 18.692C23.1002 17.6288 22.4854 16.1845 22.4693 14.6728C22.4693 14.0798 22.4533 13.0156 22.448 11.9513C22.4427 10.8871 22.432 9.83342 22.4267 9.2404C22.421 9.19278 22.4256 9.14447 22.4403 9.09879C22.455 9.0531 22.4794 9.0111 22.5119 8.97566C22.7114 8.7321 23.2248 8.60768 24.0415 8.60768H24.0787C24.2118 8.18939 24.3607 7.83464 24.5017 7.49312C24.6715 7.11036 24.8207 6.71888 24.9486 6.32033C24.9574 6.28849 24.9778 6.26105 25.0059 6.24342C25.0339 6.22579 25.0676 6.21923 25.1003 6.22502C25.1327 6.23005 25.1623 6.24639 25.1837 6.27112C25.2052 6.29586 25.2171 6.32738 25.2173 6.36004C25.214 6.96678 25.2818 7.57184 25.4195 8.16291C25.4283 8.24413 25.4617 8.32077 25.5153 8.38265C25.6066 8.42801 25.7108 8.44108 25.8106 8.41971L29.1837 8.15497C29.4139 7.2605 29.7723 6.40367 30.2478 5.61083C30.2628 5.58599 30.2852 5.56648 30.312 5.55508C30.3387 5.54367 30.3684 5.54095 30.3968 5.54729C30.4247 5.55282 30.4502 5.56711 30.4693 5.58808C30.4885 5.60905 30.5003 5.63558 30.5032 5.66378C30.5458 6.03177 30.583 6.48976 30.6203 6.93188C30.6522 7.32899 30.6868 7.7261 30.724 8.08085C31.2697 8.11484 31.817 8.11484 32.3627 8.08085C32.4922 7.54883 32.6768 7.03159 32.9134 6.53742C32.9296 6.52127 32.9495 6.50929 32.9714 6.50252C32.9933 6.49575 33.0165 6.49439 33.039 6.49856C33.0615 6.50273 33.0827 6.51231 33.1007 6.52646C33.1187 6.54061 33.1329 6.55891 33.1422 6.57978C33.261 7.02187 33.3314 7.47544 33.3523 7.93259C33.5811 7.96965 34.1211 8.06496 34.3819 8.10202C34.4084 8.10593 34.4332 8.11756 34.453 8.13547C34.4729 8.15338 34.487 8.17674 34.4936 8.20262C34.7915 9.32777 34.8634 13.1268 34.6798 14.5802C34.2435 18.0218 31.9504 20.3356 28.9736 20.3674H28.3165L28.2367 20.3515ZM24.0415 8.89095C23.0998 8.89095 22.8178 9.06303 22.7406 9.14245C22.6635 9.22187 22.6981 9.20863 22.6981 9.21128C22.6981 9.82018 22.714 10.8844 22.722 11.9487C22.73 13.0129 22.722 14.0666 22.7433 14.6702C22.7502 15.3891 22.8996 16.0997 23.1827 16.7611C23.4659 17.4226 23.8773 18.022 24.3934 18.5251C24.9096 19.0282 25.5203 19.4251 26.1908 19.693C26.8612 19.961 27.5781 20.0948 28.3005 20.0868H28.9576C31.3146 20.0603 33.911 18.3342 34.3925 14.5272C34.5867 13.0156 34.4909 9.47337 34.2382 8.34029C33.8658 8.28205 33.1874 8.16291 33.1874 8.16291C33.157 8.15817 33.1291 8.14327 33.1083 8.12066C33.0875 8.09805 33.0751 8.06907 33.073 8.03849C33.0597 7.83464 33.0225 7.38193 32.9639 7.03513C32.8221 7.4005 32.7039 7.77455 32.6101 8.15497C32.6154 8.17493 32.6154 8.19591 32.6101 8.21586C32.6049 8.24525 32.5901 8.27209 32.568 8.29221C32.5458 8.31233 32.5176 8.32458 32.4878 8.32705C31.8522 8.37521 31.214 8.38052 30.5777 8.34294C30.5455 8.34067 30.5151 8.32725 30.4918 8.30501C30.4684 8.28276 30.4537 8.2531 30.45 8.22116C30.4075 7.85317 30.3702 7.39517 30.333 6.95041C30.3117 6.66979 30.2877 6.38387 30.2611 6.11648C29.8921 6.8097 29.6115 7.54608 29.4258 8.30852C29.4192 8.33674 29.4038 8.36217 29.3819 8.38118C29.3599 8.4002 29.3325 8.41183 29.3035 8.41442L25.8318 8.67915C25.6609 8.71038 25.4844 8.67431 25.3397 8.57855C25.2376 8.48002 25.1712 8.35062 25.1508 8.21057C25.0634 7.83598 25.0038 7.45549 24.9726 7.07219C24.9008 7.25486 24.8289 7.42959 24.7571 7.60167C24.5879 7.99008 24.4388 8.38682 24.3102 8.79035C24.302 8.81828 24.2848 8.84275 24.2612 8.85998C24.2377 8.87721 24.2091 8.88623 24.1798 8.88565H24.0415V8.89095Z" fill="#231F20"/>
<path d="M28.7422 16.1927C28.5014 16.1943 28.2607 16.1819 28.0213 16.1556C27.9664 16.1501 27.9136 16.1316 27.8673 16.1017C27.821 16.0718 27.7826 16.0312 27.7553 15.9835C27.3217 15.2899 28.4762 12.1448 28.6119 11.7742C28.6255 11.7406 28.6517 11.7136 28.6849 11.6988C28.7182 11.684 28.7558 11.6825 28.7901 11.6947C28.8236 11.7078 28.8507 11.7334 28.8657 11.766C28.8806 11.7986 28.8821 11.8357 28.8699 11.8695C28.3831 13.172 27.7127 15.4037 27.9841 15.8406C28.0053 15.8776 28.0266 15.8829 28.0426 15.8829C28.5737 15.9337 29.1087 15.9284 29.6387 15.867C29.6566 15.864 29.6749 15.8647 29.6925 15.869C29.7102 15.8733 29.7267 15.8812 29.7411 15.8921C29.7556 15.903 29.7677 15.9168 29.7766 15.9325C29.7855 15.9482 29.7911 15.9656 29.793 15.9835C29.7976 16.0193 29.7879 16.0554 29.766 16.0841C29.7441 16.1128 29.7118 16.1318 29.676 16.1371C29.3661 16.1738 29.0543 16.1924 28.7422 16.1927Z" fill="#231F20"/>
<path d="M26.2449 12.3656C26.4594 12.3632 26.6295 12.0247 26.625 11.6095C26.6204 11.1943 26.4428 10.8596 26.2283 10.862C26.0138 10.8643 25.8436 11.2028 25.8482 11.618C25.8528 12.0332 26.0304 12.3679 26.2449 12.3656Z" fill="#231F20"/>
<path d="M31.3969 12.3129C31.6114 12.3105 31.7815 11.972 31.7769 11.5568C31.7723 11.1416 31.5947 10.8069 31.3803 10.8092C31.1658 10.8116 30.9956 11.1501 31.0002 11.5653C31.0048 11.9805 31.1824 12.3152 31.3969 12.3129Z" fill="#231F20"/>
<path d="M28.4761 17.5111C27.1886 17.5111 25.8904 16.8995 24.6108 15.6897C24.5861 15.664 24.5723 15.6299 24.5723 15.5944C24.5723 15.5588 24.5861 15.5247 24.6108 15.499C24.6234 15.4862 24.6385 15.4759 24.6552 15.4689C24.6719 15.4619 24.6898 15.4583 24.7079 15.4583C24.726 15.4583 24.7439 15.4619 24.7606 15.4689C24.7772 15.4759 24.7923 15.4862 24.805 15.499C26.1351 16.7618 27.4918 17.3522 28.8113 17.2278C30.7293 17.061 31.9424 15.4514 31.953 15.4355C31.9625 15.4182 31.9755 15.4031 31.9912 15.3912C32.007 15.3793 32.0252 15.3709 32.0445 15.3666C32.0638 15.3623 32.0838 15.3622 32.1031 15.3662C32.1225 15.3702 32.1407 15.3784 32.1567 15.39C32.1726 15.4017 32.1859 15.4166 32.1955 15.4338C32.2052 15.451 32.211 15.47 32.2126 15.4896C32.2142 15.5092 32.2116 15.529 32.2049 15.5475C32.1983 15.566 32.1876 15.5829 32.1738 15.597C32.1233 15.6685 30.8783 17.3204 28.8379 17.5005C28.7235 17.5058 28.6038 17.5111 28.4761 17.5111Z" fill="#231F20"/>
<path d="M32.2696 23.7246C32.2696 23.7246 34.9299 23.9152 35.0789 24.6035C35.2278 25.2919 34.4537 30.3272 33.5013 31.4868C32.549 32.6463 28.4761 28.2437 28.4761 28.2437L32.2696 23.7246Z" fill="white"/>
<path d="M33.0544 31.8122C31.6099 31.8122 28.5001 28.4791 28.367 28.3362C28.3453 28.3111 28.3334 28.2792 28.3334 28.2461C28.3334 28.2131 28.3453 28.1811 28.367 28.1561L32.1685 23.637C32.1823 23.6204 32.1999 23.6074 32.2198 23.5991C32.2397 23.5908 32.2614 23.5875 32.2829 23.5894C32.7458 23.6212 35.0549 23.825 35.2092 24.5742C35.3635 25.3234 34.584 30.3826 33.613 31.5686C33.549 31.6471 33.4678 31.7099 33.3755 31.7521C33.2833 31.7943 33.1825 31.8149 33.081 31.8122H33.0544ZM28.6517 28.2382C29.6014 29.2469 32.0142 31.5792 33.073 31.5395C33.1339 31.5408 33.1944 31.5287 33.2501 31.504C33.3057 31.4793 33.3552 31.4426 33.3949 31.3965C34.3074 30.2899 35.0921 25.3234 34.9432 24.6298C34.858 24.2353 33.3896 23.9494 32.3308 23.8674L28.6517 28.2382Z" fill="#231F20"/>
<path d="M24.6773 23.5469C24.6773 23.5469 22.0171 23.6104 21.8335 24.2908C21.65 24.9712 22.1847 30.0383 23.0812 31.2375C23.9777 32.4368 28.2607 28.238 28.2607 28.238L24.6773 23.5469Z" fill="white"/>
<path d="M23.5573 31.5903H23.4855C23.3857 31.5862 23.288 31.5603 23.1993 31.5146C23.1106 31.4689 23.033 31.4043 22.9721 31.3255C22.049 30.0919 21.5089 24.9718 21.7005 24.2623C21.892 23.5528 24.2117 23.4257 24.6746 23.4151C24.6962 23.4143 24.7176 23.4187 24.7371 23.4279C24.7565 23.4371 24.7734 23.4509 24.7864 23.4681L28.3697 28.1619C28.392 28.1867 28.4043 28.2187 28.4043 28.2519C28.4043 28.2851 28.392 28.3172 28.3697 28.3419C28.2101 28.4717 25.0178 31.5903 23.5573 31.5903ZM24.6214 23.6852C23.5573 23.7196 22.0782 23.934 21.9745 24.3258C21.7936 25.0089 22.3416 30.0071 23.2009 31.1561C23.238 31.2041 23.2855 31.2433 23.3398 31.2708C23.3941 31.2983 23.4539 31.3134 23.5148 31.315C24.5656 31.3864 27.0928 29.197 28.0877 28.2255L24.6214 23.6852Z" fill="#231F20"/>
<path d="M5.54749 63.8513C5.54749 63.8513 1.97212 43.0455 2.73029 39.9189C3.48846 36.7924 4.68025 35.3919 4.68025 35.3919C4.68025 35.3919 6.6302 33.8829 7.71292 36.6865C8.79564 39.49 8.90471 63.8513 8.90471 63.8513H5.54749Z" fill="#231F20"/>
<path d="M38.5851 52.4307C38.5851 53.2557 38.2557 54.0469 37.6695 54.6302C37.0833 55.2136 36.2883 55.5413 35.4593 55.5413C34.6303 55.5413 33.8352 55.2136 33.249 54.6302C32.6628 54.0469 32.3335 53.2557 32.3335 52.4307H38.5851Z" fill="white"/>
<path d="M35.4513 55.6783C34.5881 55.6741 33.7617 55.3301 33.1526 54.7215C32.5435 54.1128 32.2012 53.289 32.2005 52.43C32.2005 52.412 32.2041 52.3942 32.2111 52.3777C32.2181 52.3611 32.2283 52.3461 32.2412 52.3335C32.2541 52.321 32.2693 52.3111 32.2861 52.3045C32.3029 52.2978 32.3208 52.2946 32.3388 52.2949H38.5851C38.6031 52.2946 38.621 52.2978 38.6378 52.3045C38.6546 52.3111 38.6699 52.321 38.6827 52.3335C38.6956 52.3461 38.7059 52.3611 38.7128 52.3777C38.7198 52.3942 38.7234 52.412 38.7234 52.43C38.7231 52.8571 38.6381 53.28 38.4735 53.6745C38.3088 54.0689 38.0677 54.4273 37.7638 54.7289C37.4599 55.0306 37.0993 55.2697 36.7025 55.4326C36.3057 55.5955 35.8805 55.679 35.4513 55.6783ZM32.4665 52.5676C32.5061 53.3292 32.838 54.0466 33.3936 54.5717C33.9493 55.0968 34.6864 55.3896 35.4526 55.3896C36.2189 55.3896 36.956 55.0968 37.5117 54.5717C38.0673 54.0466 38.3992 53.3292 38.4388 52.5676H32.4665Z" fill="#231F20"/>
<path d="M38.5851 52.5683C38.5584 52.5683 38.5324 52.5606 38.5102 52.546C38.4879 52.5314 38.4705 52.5106 38.4601 52.4862L35.4513 45.7671L32.4506 52.4783C32.4471 52.4978 32.4394 52.5163 32.428 52.5325C32.4165 52.5487 32.4017 52.5622 32.3844 52.5721C32.3671 52.5819 32.3479 52.5878 32.328 52.5895C32.3082 52.5911 32.2883 52.5883 32.2696 52.5814C32.251 52.5745 32.2341 52.5636 32.2201 52.5495C32.2062 52.5353 32.1955 52.5183 32.1889 52.4996C32.1823 52.4809 32.18 52.461 32.182 52.4413C32.184 52.4216 32.1903 52.4026 32.2005 52.3856L35.3263 45.3939C35.3388 45.3718 35.357 45.3535 35.379 45.3408C35.4009 45.328 35.4259 45.3213 35.4513 45.3213C35.4768 45.3213 35.5017 45.328 35.5237 45.3408C35.5457 45.3535 35.5638 45.3718 35.5764 45.3939L38.7021 52.3856C38.7121 52.4064 38.7166 52.4294 38.7151 52.4524C38.7137 52.4753 38.7064 52.4976 38.6938 52.517C38.6813 52.5363 38.664 52.5522 38.6436 52.563C38.6231 52.5739 38.6002 52.5793 38.5771 52.5789L38.5851 52.5683Z" fill="#231F20"/>
<path d="M35.4513 52.5679C35.4146 52.5679 35.3794 52.5534 35.3534 52.5276C35.3275 52.5017 35.3129 52.4667 35.3129 52.4302V45.4384C35.3129 45.4204 35.3165 45.4025 35.3235 45.3858C35.3304 45.3691 35.3406 45.3539 35.3534 45.3411C35.3663 45.3283 35.3815 45.3182 35.3983 45.3113C35.4151 45.3043 35.4331 45.3008 35.4513 45.3008C35.4694 45.3008 35.4874 45.3043 35.5042 45.3113C35.521 45.3182 35.5362 45.3283 35.5491 45.3411C35.5619 45.3539 35.5721 45.3691 35.5791 45.3858C35.586 45.4025 35.5896 45.4204 35.5896 45.4384V52.4302C35.5896 52.4483 35.586 52.4662 35.5791 52.4829C35.5721 52.4996 35.5619 52.5148 35.5491 52.5276C35.5362 52.5403 35.521 52.5505 35.5042 52.5574C35.4874 52.5643 35.4694 52.5679 35.4513 52.5679Z" fill="#231F20"/>
<path d="M24.1187 52.4307C24.1187 53.2557 23.7894 54.0469 23.2032 54.6302C22.617 55.2136 21.8219 55.5413 20.9929 55.5413C20.1639 55.5413 19.3688 55.2136 18.7826 54.6302C18.1964 54.0469 17.8671 53.2557 17.8671 52.4307H24.1187Z" fill="white"/>
<path d="M20.9929 55.6783C20.1274 55.6776 19.2976 55.3351 18.6856 54.7261C18.0736 54.1171 17.7295 53.2913 17.7288 52.43C17.7288 52.412 17.7324 52.3942 17.7393 52.3777C17.7463 52.3611 17.7566 52.3461 17.7694 52.3335C17.7823 52.321 17.7976 52.3111 17.8144 52.3045C17.8311 52.2978 17.8491 52.2946 17.8671 52.2949H24.1187C24.1367 52.2946 24.1546 52.2978 24.1714 52.3045C24.1882 52.3111 24.2034 52.321 24.2163 52.3335C24.2292 52.3461 24.2394 52.3611 24.2464 52.3777C24.2534 52.3942 24.257 52.412 24.257 52.43C24.2563 53.2913 23.9122 54.1171 23.3002 54.7261C22.6882 55.3351 21.8584 55.6776 20.9929 55.6783ZM18.0054 52.5676C18.045 53.3292 18.3769 54.0466 18.9325 54.5717C19.4882 55.0968 20.2253 55.3896 20.9915 55.3896C21.7578 55.3896 22.4949 55.0968 23.0505 54.5717C23.6062 54.0466 23.9381 53.3292 23.9777 52.5676H18.0054Z" fill="#231F20"/>
<path d="M24.1186 52.5683C24.092 52.5683 24.0659 52.5605 24.0437 52.5459C24.0215 52.5314 24.004 52.5106 23.9936 52.4862L20.9928 45.7671L17.9921 52.4782C17.9769 52.511 17.9497 52.5367 17.916 52.55C17.8823 52.5633 17.8448 52.5632 17.8112 52.5497C17.7781 52.5341 17.7522 52.5065 17.7388 52.4726C17.7255 52.4386 17.7257 52.4009 17.7394 52.3671L20.8678 45.3753C20.8803 45.3533 20.8985 45.335 20.9205 45.3222C20.9424 45.3095 20.9674 45.3027 20.9928 45.3027C21.0183 45.3027 21.0432 45.3095 21.0652 45.3222C21.0872 45.335 21.1053 45.3533 21.1179 45.3753L24.2436 52.3856C24.2536 52.4064 24.2581 52.4293 24.2567 52.4523C24.2552 52.4753 24.2479 52.4976 24.2353 52.5169C24.2228 52.5363 24.2055 52.5522 24.1851 52.563C24.1646 52.5738 24.1418 52.5793 24.1186 52.5788V52.5683Z" fill="#231F20"/>
<path d="M20.9929 52.5676C20.9747 52.5676 20.9567 52.564 20.94 52.5571C20.9232 52.5502 20.9079 52.5401 20.8951 52.5273C20.8822 52.5145 20.872 52.4993 20.8651 52.4826C20.8581 52.4659 20.8546 52.448 20.8546 52.4299V45.4382C20.8487 45.4177 20.8477 45.3961 20.8516 45.3752C20.8555 45.3542 20.8642 45.3345 20.8771 45.3175C20.89 45.3004 20.9067 45.2866 20.9259 45.2771C20.945 45.2676 20.9662 45.2627 20.9876 45.2627C21.009 45.2627 21.0301 45.2676 21.0493 45.2771C21.0684 45.2866 21.0851 45.3004 21.098 45.3175C21.1109 45.3345 21.1197 45.3542 21.1236 45.3752C21.1275 45.3961 21.1265 45.4177 21.1206 45.4382V52.4299C21.1213 52.4649 21.1084 52.4987 21.0846 52.5244C21.0608 52.5501 21.0279 52.5655 20.9929 52.5676Z" fill="#231F20"/>
<path d="M35.7998 45.0146H20.6444V45.4382H35.7998V45.0146Z" fill="#231F20"/>
<path d="M28.2207 45.8543L26.6698 45.3672H29.7743L28.2207 45.8543Z" fill="#231F20"/>
<path d="M28.6491 44.374H27.7925V45.2265H28.6491V44.374Z" fill="#231F20"/>
<path d="M28.2101 44.687C28.1741 44.687 28.1396 44.6728 28.1141 44.6475C28.0887 44.6222 28.0744 44.5878 28.0744 44.552V40.0515C28.0685 40.031 28.0675 40.0094 28.0714 39.9885C28.0753 39.9675 28.0841 39.9477 28.097 39.9307C28.1099 39.9137 28.1266 39.8999 28.1457 39.8904C28.1649 39.8809 28.186 39.876 28.2074 39.876C28.2288 39.876 28.25 39.8809 28.2691 39.8904C28.2883 39.8999 28.305 39.9137 28.3179 39.9307C28.3308 39.9477 28.3395 39.9675 28.3434 39.9885C28.3473 40.0094 28.3463 40.031 28.3404 40.0515V44.552C28.3405 44.5869 28.3269 44.6205 28.3026 44.6457C28.2783 44.6708 28.2451 44.6857 28.2101 44.687Z" fill="#231F20"/>
<path d="M20.405 33.5336C20.405 33.5336 28.8379 32.0246 29.4152 32.697C29.9925 33.3695 32.7538 36.8481 32.674 37.9918C32.5942 39.1355 27.4759 42.1959 26.5395 41.0654C25.9029 40.2421 25.3671 39.3463 24.9433 38.3969L20.4209 39.9324L20.405 33.5336Z" fill="white"/>
<path d="M27.2178 41.4354C27.0708 41.4504 26.9224 41.4315 26.7839 41.38C26.6455 41.3286 26.5209 41.2461 26.4197 41.1389C25.7967 40.3408 25.2699 39.4727 24.8502 38.5524L20.4369 40.0482C20.416 40.0553 20.3938 40.0575 20.372 40.0543C20.3502 40.0512 20.3295 40.043 20.3115 40.0303C20.2936 40.0176 20.2789 40.0009 20.2688 39.9814C20.2587 39.9619 20.2534 39.9404 20.2533 39.9185V33.5329C20.2534 33.5007 20.265 33.4695 20.2859 33.4448C20.3068 33.4201 20.3357 33.4035 20.3677 33.3979C21.7883 33.1332 28.9071 31.9101 29.5056 32.6037C29.5402 32.6434 32.8894 36.6675 32.7963 37.9832C32.7325 38.8807 30.0856 40.6571 28.2739 41.2316C27.934 41.3514 27.5781 41.4201 27.2178 41.4354ZM24.938 38.2585C24.9649 38.2587 24.9912 38.2669 25.0135 38.2819C25.0357 38.297 25.053 38.3184 25.063 38.3433C25.4882 39.2853 26.024 40.1739 26.6592 40.9906C26.872 41.2554 27.4253 41.2554 28.2154 40.9906C30.168 40.3712 32.501 38.6424 32.5489 37.9832C32.6208 36.9957 30.1733 33.7924 29.3221 32.7996C28.9975 32.4184 24.6294 32.9346 20.5566 33.66V39.749L24.9061 38.2744C24.9151 38.2631 24.9258 38.2532 24.938 38.2453V38.2585Z" fill="#231F20"/>
<path d="M4.68026 35.3916C4.68026 35.3916 14.8078 32.6966 20.7667 32.4795L21.1339 40.6864C21.1339 40.6864 6.02102 45.7164 3.42729 48.8245C3.42729 48.8245 2.27008 44.0592 2.7303 39.9054C3.06816 36.8927 4.68026 35.3916 4.68026 35.3916Z" fill="white"/>
<path d="M3.42732 48.9752H3.39806C3.37336 48.9691 3.35074 48.9566 3.33251 48.9389C3.31428 48.9212 3.3011 48.899 3.29431 48.8746C3.29431 48.8243 2.13711 44.0325 2.59467 39.9079C2.93252 36.8634 4.52068 35.357 4.58719 35.2935C4.60419 35.2789 4.62414 35.268 4.64571 35.2617C4.7468 35.2353 14.8557 32.5614 20.7614 32.3496C20.7978 32.3495 20.8328 32.3631 20.8594 32.3877C20.8861 32.4122 20.9024 32.4459 20.9051 32.482L21.2722 40.6889C21.2733 40.7183 21.2648 40.7474 21.248 40.7717C21.2313 40.796 21.2071 40.8143 21.1791 40.8239C21.0275 40.8742 6.0716 45.8884 3.53373 48.9196C3.52148 48.9364 3.50551 48.9501 3.48705 48.9598C3.4686 48.9694 3.44816 48.9747 3.42732 48.9752ZM4.75744 35.5159C4.56059 35.7144 3.17726 37.197 2.87399 39.9344C2.48028 43.4713 3.28101 47.5086 3.50979 48.5516C6.43606 45.5521 19.6096 41.0701 20.9982 40.6095L20.6417 32.6302C14.9089 32.8632 5.40654 35.3412 4.75212 35.5159H4.75744Z" fill="#231F20"/>
<path d="M59.8377 34.9863H41.8332V57.5685H59.8377V34.9863Z" fill="white"/>
<path d="M59.8377 57.7035H41.8332C41.8151 57.7035 41.7971 57.7 41.7803 57.6931C41.7635 57.6862 41.7482 57.676 41.7354 57.6632C41.7226 57.6504 41.7124 57.6353 41.7054 57.6186C41.6985 57.6019 41.6949 57.584 41.6949 57.5659V34.9863C41.6949 34.9498 41.7095 34.9148 41.7354 34.889C41.7613 34.8631 41.7965 34.8486 41.8332 34.8486H59.8377C59.8558 34.8486 59.8736 34.8522 59.8903 34.8592C59.9069 34.8661 59.922 34.8763 59.9346 34.8891C59.9473 34.9019 59.9572 34.9171 59.9638 34.9338C59.9705 34.9505 59.9738 34.9683 59.9734 34.9863V57.5659C59.9738 57.5838 59.9705 57.6017 59.9638 57.6184C59.9572 57.6351 59.9473 57.6503 59.9346 57.6631C59.922 57.6759 59.9069 57.6861 59.8903 57.693C59.8736 57.7 59.8558 57.7036 59.8377 57.7035ZM41.9689 57.4388H59.6994V35.1213H41.9689V57.4388Z" fill="#231F20"/>
<path d="M57.2067 38.6768H44.4376C44.4023 38.6768 44.3685 38.6629 44.3435 38.6381C44.3186 38.6133 44.3046 38.5796 44.3046 38.5445C44.3046 38.5094 44.3186 38.4757 44.3435 38.4509C44.3685 38.4261 44.4023 38.4121 44.4376 38.4121H57.2067C57.2418 38.4128 57.2752 38.427 57.3 38.4516C57.3248 38.4763 57.3391 38.5096 57.3398 38.5445C57.3398 38.5796 57.3257 38.6133 57.3008 38.6381C57.2759 38.6629 57.242 38.6768 57.2067 38.6768Z" fill="#D1D3D4"/>
<path d="M57.2067 41.7618H44.4376C44.4023 41.7618 44.3685 41.7479 44.3435 41.723C44.3186 41.6982 44.3046 41.6645 44.3046 41.6294C44.3046 41.5943 44.3186 41.5607 44.3435 41.5358C44.3685 41.511 44.4023 41.4971 44.4376 41.4971H57.2067C57.242 41.4971 57.2759 41.511 57.3008 41.5358C57.3257 41.5607 57.3398 41.5943 57.3398 41.6294C57.3398 41.6645 57.3257 41.6982 57.3008 41.723C57.2759 41.7479 57.242 41.7618 57.2067 41.7618Z" fill="#D1D3D4"/>
<path d="M57.2067 44.8458H44.4376C44.4023 44.8458 44.3685 44.8319 44.3435 44.807C44.3186 44.7822 44.3046 44.7485 44.3046 44.7134C44.3046 44.6783 44.3186 44.6446 44.3435 44.6198C44.3685 44.595 44.4023 44.5811 44.4376 44.5811H57.2067C57.242 44.5811 57.2759 44.595 57.3008 44.6198C57.3257 44.6446 57.3398 44.6783 57.3398 44.7134C57.3391 44.7483 57.3248 44.7816 57.3 44.8063C57.2752 44.831 57.2418 44.8451 57.2067 44.8458Z" fill="#D1D3D4"/>
<path d="M57.2067 47.9268H44.4376C44.4023 47.9268 44.3685 47.9129 44.3435 47.8881C44.3186 47.8633 44.3046 47.8296 44.3046 47.7945C44.3046 47.7594 44.3186 47.7257 44.3435 47.7009C44.3685 47.6761 44.4023 47.6621 44.4376 47.6621H57.2067C57.2418 47.6628 57.2752 47.677 57.3 47.7016C57.3248 47.7263 57.3391 47.7596 57.3398 47.7945C57.3398 47.8296 57.3257 47.8633 57.3008 47.8881C57.2759 47.9129 57.242 47.9268 57.2067 47.9268Z" fill="#D1D3D4"/>
<path d="M54.3018 51.0118H44.4589C44.4236 51.0118 44.3898 50.9978 44.3648 50.973C44.3399 50.9482 44.3259 50.9145 44.3259 50.8794C44.3259 50.8443 44.3399 50.8107 44.3648 50.7858C44.3898 50.761 44.4236 50.7471 44.4589 50.7471H54.3018C54.337 50.7471 54.3709 50.761 54.3958 50.7858C54.4208 50.8107 54.4348 50.8443 54.4348 50.8794C54.4348 50.9145 54.4208 50.9482 54.3958 50.973C54.3709 50.9978 54.337 51.0118 54.3018 51.0118Z" fill="#D1D3D4"/>
<path d="M56.3209 55.6021C57.1378 55.6021 57.8 54.9431 57.8 54.1301C57.8 53.3172 57.1378 52.6582 56.3209 52.6582C55.504 52.6582 54.8418 53.3172 54.8418 54.1301C54.8418 54.9431 55.504 55.6021 56.3209 55.6021Z" fill="#ED6710"/>
<path d="M44.56 55.8272C44.5337 55.8281 44.5077 55.8211 44.4855 55.8071C44.4633 55.7931 44.4459 55.7727 44.4355 55.7487C44.4252 55.7246 44.4224 55.698 44.4275 55.6723C44.4326 55.6467 44.4454 55.6231 44.4642 55.6048C45.1885 54.8522 46.0225 54.2123 46.9382 53.7067C47.7363 53.2645 48.412 53.1983 48.8749 53.5213C48.9234 53.5496 48.9654 53.5878 48.998 53.6335C49.0305 53.6791 49.053 53.7311 49.0638 53.7861C49.0683 53.8808 49.0401 53.9742 48.984 54.0508C49.1177 54.0429 49.2519 54.0429 49.3857 54.0508C49.4853 54.0467 49.5847 54.0645 49.6766 54.1029C49.7686 54.1413 49.8509 54.1995 49.9177 54.2732C49.943 54.3089 49.9627 54.3482 49.9762 54.3897C50.4663 54.2269 50.9999 54.2533 51.4713 54.4638C51.4873 54.4712 51.5016 54.4817 51.5135 54.4946C51.5254 54.5075 51.5345 54.5227 51.5405 54.5392C51.5464 54.5557 51.549 54.5732 51.5481 54.5907C51.5472 54.6082 51.5428 54.6254 51.5351 54.6412C51.528 54.657 51.5177 54.6712 51.505 54.683C51.4922 54.6948 51.4772 54.7039 51.4608 54.7098C51.4445 54.7157 51.4271 54.7183 51.4097 54.7175C51.3923 54.7166 51.3752 54.7123 51.3596 54.7047C51.1427 54.6096 50.9091 54.558 50.6721 54.553C50.4352 54.548 50.1996 54.5897 49.9789 54.6756C49.9441 54.7993 49.8813 54.9134 49.7953 55.0092C49.589 55.2313 49.3117 55.3754 49.0106 55.4169C48.9856 55.42 48.9603 55.416 48.9377 55.4052C48.915 55.3944 48.896 55.3773 48.8829 55.356C48.8685 55.3349 48.8607 55.31 48.8607 55.2845C48.8607 55.259 48.8685 55.2341 48.8829 55.213C49.0895 54.8958 49.383 54.6441 49.7288 54.4876C49.7239 54.4667 49.7148 54.4469 49.7022 54.4294C49.6543 54.3632 49.5506 54.3261 49.3777 54.3155C49.1833 54.3045 48.9883 54.3107 48.7951 54.3341C48.4628 54.7779 48.0484 55.1544 47.574 55.4433C47.4641 55.5247 47.3269 55.5607 47.191 55.5439C47.1411 55.5337 47.0942 55.5124 47.0537 55.4817C47.0131 55.451 46.9801 55.4117 46.9568 55.3666C46.9262 55.3098 46.9075 55.2474 46.902 55.1832C46.8965 55.119 46.9043 55.0544 46.9249 54.9933C47.0008 54.8217 47.1318 54.6802 47.2974 54.5909C47.708 54.332 48.1682 54.1607 48.6488 54.0879L48.7605 53.9184C48.7845 53.8863 48.8009 53.8492 48.8084 53.8099C48.8084 53.8099 48.8084 53.7702 48.7312 53.7252C48.2577 53.3969 47.5687 53.6511 47.0766 53.9237C46.1844 54.4178 45.3719 55.0425 44.6664 55.7769C44.6536 55.7927 44.6374 55.8054 44.6189 55.8141C44.6005 55.8229 44.5804 55.8273 44.56 55.8272ZM48.3881 54.4214C48.0495 54.5045 47.7269 54.6422 47.433 54.8291C47.3186 54.8874 47.2255 54.98 47.167 55.0939C47.1512 55.1457 47.156 55.2016 47.1803 55.2501C47.186 55.2618 47.1942 55.2721 47.2043 55.2803C47.2144 55.2885 47.2262 55.2945 47.2388 55.2977C47.3076 55.298 47.3743 55.2746 47.4277 55.2315C47.7878 55.007 48.1116 54.7294 48.3881 54.4082V54.4214Z" fill="#D1D3D4"/>
<path d="M48.803 35.7996C48.5742 36.525 49.2792 37.3298 50.0454 37.3139C50.8115 37.298 51.4553 36.5991 51.5351 35.842C51.4218 36.063 51.3901 36.3166 51.4455 36.5586C51.5009 36.8005 51.64 37.0153 51.8384 37.1657C52.0473 37.3056 52.2966 37.3733 52.5479 37.3585C52.7993 37.3437 53.0388 37.2471 53.2297 37.0836C53.4141 36.9127 53.5425 36.6904 53.598 36.4457C53.6535 36.2011 53.6336 35.9455 53.5409 35.7123C53.7644 36.2603 53.4638 36.8427 54.1102 37.2822C54.5491 37.5813 54.9828 37.8116 55.153 37.0836C55.4142 35.9779 55.5727 34.8507 55.6265 33.7161C55.6595 33.4629 55.6218 33.2055 55.5175 32.9722C55.3047 32.5883 54.8019 32.4851 54.3603 32.4427C52.3367 32.2537 50.2964 32.5207 48.3907 33.2237C47.9198 33.3958 47.4064 33.6473 47.2494 34.1238C47.1944 34.3363 47.1791 34.5571 47.2042 34.7751C47.2335 35.3787 46.9382 37.2292 47.8852 37.2901C48.7152 37.3536 48.6461 36.2947 48.803 35.7996Z" fill="white"/>
<path d="M54.7407 37.7163C54.4804 37.681 54.2352 37.5737 54.0331 37.4066C53.8296 37.2753 53.6753 37.0808 53.5942 36.8533C53.5261 36.9824 53.4361 37.0989 53.3281 37.1975C53.1127 37.3796 52.8434 37.4869 52.5612 37.5031C52.2789 37.5194 51.9991 37.4437 51.7639 37.2875C51.5694 37.1442 51.4244 36.9444 51.3489 36.7156C51.205 36.9298 51.0131 37.1078 50.7883 37.2355C50.5635 37.3632 50.3119 37.4372 50.0534 37.4516C49.8288 37.4474 49.6082 37.392 49.4085 37.2897C49.2088 37.1873 49.0353 37.0408 48.9015 36.8612C48.8522 36.7963 48.8086 36.7272 48.7711 36.6547C48.6621 37.0704 48.4439 37.4754 47.88 37.449C46.9861 37.3907 47.034 36.0538 47.0633 35.2543C47.0633 35.0716 47.0633 34.9128 47.0633 34.8042C47.0378 34.5691 47.0558 34.3313 47.1165 34.1027C47.2974 33.5732 47.864 33.2899 48.3402 33.1152C50.2651 32.4036 52.3263 32.1321 54.371 32.321C54.7939 32.358 55.3818 32.4639 55.6346 32.9193C55.7529 33.1748 55.7962 33.4584 55.7596 33.7373C55.7061 34.8799 55.5467 36.0152 55.2834 37.1286C55.2116 37.4357 55.0892 37.6184 54.9057 37.6872C54.853 37.7069 54.797 37.7168 54.7407 37.7163ZM53.7485 35.9347C53.7694 36.0555 53.7827 36.1775 53.7884 36.3C53.8096 36.6389 53.8309 36.9327 54.1954 37.1816C54.4321 37.3431 54.6716 37.486 54.8152 37.4304C54.9589 37.3748 54.9908 37.208 55.0254 37.0624C55.2836 35.9653 55.4403 34.847 55.4936 33.7214C55.5255 33.4933 55.4942 33.2608 55.4031 33.049C55.2143 32.7101 54.7434 32.6254 54.355 32.5884C52.3461 32.3995 50.3202 32.6637 48.428 33.3614C48.0103 33.5149 47.5129 33.7479 47.3639 34.1768C47.3143 34.374 47.3008 34.5784 47.324 34.7804C47.324 34.8995 47.324 35.0637 47.324 35.2516C47.2947 35.9982 47.2548 37.1233 47.8826 37.1657C48.3615 37.1948 48.4705 36.7765 48.5716 36.1809C48.5926 36.0398 48.6219 35.9002 48.6594 35.7626C48.6704 35.7275 48.6949 35.6981 48.7275 35.681C48.7602 35.6639 48.7984 35.6604 48.8337 35.6712C48.8689 35.6821 48.8984 35.7065 48.9156 35.739C48.9329 35.7715 48.9364 35.8095 48.9254 35.8446C48.8843 35.9918 48.8796 36.1466 48.9115 36.2959C48.9435 36.4453 49.0112 36.5847 49.109 36.7024C49.2165 36.8473 49.3558 36.9659 49.5161 37.0494C49.6765 37.1328 49.8539 37.179 50.0348 37.1842C50.3043 37.1608 50.5621 37.064 50.7799 36.9042C50.9976 36.7445 51.1669 36.5281 51.2691 36.2788C51.2757 36.1033 51.3241 35.9318 51.4101 35.7785C51.4253 35.7513 51.4496 35.7303 51.4788 35.7191C51.508 35.708 51.5402 35.7074 51.5697 35.7176C51.5999 35.7266 51.6259 35.7458 51.6434 35.7719C51.6609 35.798 51.6687 35.8293 51.6655 35.8605C51.6475 36.0272 51.6054 36.1903 51.5405 36.345C51.5432 36.4858 51.5779 36.6242 51.6419 36.7498C51.7059 36.8754 51.7977 36.985 51.9102 37.0704C52.0941 37.1921 52.3129 37.2507 52.5333 37.2373C52.7537 37.2239 52.9637 37.1393 53.1313 36.9963C53.2627 36.8753 53.3626 36.7245 53.4224 36.5566C53.4822 36.3887 53.5 36.2089 53.4745 36.0326C53.4614 35.9475 53.4391 35.8641 53.4079 35.7838C53.3955 35.75 53.3966 35.7127 53.4109 35.6797C53.4253 35.6467 53.4518 35.6205 53.4851 35.6064C53.519 35.5933 53.5567 35.594 53.59 35.6084C53.6234 35.6228 53.6497 35.6496 53.6633 35.6832C53.7015 35.7634 53.73 35.8478 53.7485 35.9347Z" fill="#231F20"/>
<path d="M27.6089 13.0798H24.1027C23.9132 13.0791 23.7316 13.0038 23.5975 12.8704C23.4635 12.737 23.3878 12.5563 23.3871 12.3676V10.7474C23.3861 10.6532 23.4038 10.5598 23.4393 10.4725C23.4748 10.3851 23.5273 10.3057 23.5939 10.2387C23.6604 10.1718 23.7397 10.1186 23.827 10.0823C23.9144 10.046 24.0081 10.0273 24.1027 10.0273H27.6089C27.7987 10.0273 27.9807 10.1024 28.1149 10.2359C28.2491 10.3695 28.3245 10.5506 28.3245 10.7395V12.3597C28.3252 12.4538 28.3073 12.5471 28.2716 12.6342C28.236 12.7214 28.1835 12.8007 28.117 12.8676C28.0505 12.9345 27.9714 12.9877 27.8842 13.0241C27.797 13.0605 27.7035 13.0794 27.6089 13.0798ZM24.1027 10.308C23.9856 10.308 23.8733 10.3543 23.7905 10.4367C23.7077 10.5191 23.6611 10.6309 23.6611 10.7474V12.3676C23.6611 12.4842 23.7077 12.596 23.7905 12.6784C23.8733 12.7608 23.9856 12.8071 24.1027 12.8071H27.6089C27.7258 12.8064 27.8378 12.7599 27.9204 12.6776C28.0031 12.5954 28.0498 12.484 28.0505 12.3676V10.7474C28.0505 10.6309 28.004 10.5191 27.9212 10.4367C27.8384 10.3543 27.7261 10.308 27.6089 10.308H24.1027Z" fill="#231F20"/>
<path d="M33.1422 13.0798H29.636C29.4464 13.0791 29.2648 13.0038 29.1308 12.8704C28.9967 12.737 28.9211 12.5563 28.9204 12.3676V10.7474C28.9193 10.6533 28.9371 10.5598 28.9726 10.4725C29.008 10.3852 29.0606 10.3057 29.1271 10.2387C29.1937 10.1718 29.2729 10.1186 29.3603 10.0823C29.4476 10.046 29.5413 10.0273 29.636 10.0273H33.1422C33.2363 10.027 33.3295 10.0452 33.4165 10.0808C33.5034 10.1165 33.5825 10.169 33.649 10.2352C33.7155 10.3014 33.7682 10.38 33.804 10.4666C33.8399 10.5531 33.8582 10.6459 33.8578 10.7395V12.3597C33.8589 12.4539 33.8411 12.5473 33.8056 12.6347C33.7701 12.722 33.7176 12.8014 33.651 12.8684C33.5845 12.9354 33.5053 12.9885 33.4179 13.0248C33.3306 13.0611 33.2368 13.0798 33.1422 13.0798ZM29.636 10.308C29.5189 10.308 29.4066 10.3543 29.3237 10.4367C29.2409 10.5191 29.1944 10.6309 29.1944 10.7474V12.3676C29.1951 12.484 29.2418 12.5954 29.3245 12.6776C29.4072 12.7599 29.5191 12.8064 29.636 12.8071H33.1422C33.2593 12.8071 33.3716 12.7608 33.4545 12.6784C33.5373 12.596 33.5838 12.4842 33.5838 12.3676V10.7474C33.5838 10.6309 33.5373 10.5191 33.4545 10.4367C33.3716 10.3543 33.2593 10.308 33.1422 10.308H29.636Z" fill="#231F20"/>
<path d="M28.1888 11.9601C28.1534 11.9599 28.1193 11.9467 28.093 11.9231C28.0801 11.9105 28.0698 11.8954 28.0628 11.8789C28.0557 11.8623 28.0521 11.8444 28.0521 11.8264C28.0521 11.8084 28.0557 11.7906 28.0628 11.774C28.0698 11.7574 28.0801 11.7424 28.093 11.7298C28.1794 11.6335 28.2846 11.5557 28.4021 11.5011C28.5196 11.4465 28.6471 11.4162 28.7767 11.4121C28.8599 11.4217 28.9396 11.4506 29.0094 11.4966C29.0792 11.5426 29.1371 11.6044 29.1784 11.6768C29.1974 11.7075 29.2036 11.7443 29.1957 11.7795C29.1877 11.8146 29.1663 11.8453 29.1359 11.8648C29.1205 11.8744 29.1035 11.8809 29.0856 11.8838C29.0678 11.8868 29.0495 11.8861 29.0319 11.8819C29.0143 11.8777 28.9977 11.8701 28.9831 11.8594C28.9685 11.8487 28.9563 11.8353 28.947 11.8198C28.9283 11.7816 28.9007 11.7484 28.8664 11.7231C28.8322 11.6977 28.7923 11.681 28.7501 11.6742C28.573 11.692 28.4094 11.7762 28.2926 11.9098C28.2802 11.9254 28.2644 11.938 28.2465 11.9467C28.2285 11.9555 28.2088 11.96 28.1888 11.9601Z" fill="#231F20"/>
<path d="M22.3842 11.9597C22.3569 11.9597 22.3302 11.9516 22.3074 11.9366C22.2847 11.9215 22.267 11.9001 22.2565 11.875C22.2432 11.8409 22.2439 11.803 22.2583 11.7694C22.2727 11.7357 22.2997 11.709 22.3336 11.6949L23.4722 11.2396C23.489 11.2328 23.5069 11.2293 23.525 11.2295C23.5431 11.2297 23.561 11.2334 23.5776 11.2406C23.5942 11.2478 23.6092 11.2581 23.6217 11.2712C23.6342 11.2842 23.644 11.2995 23.6504 11.3164C23.6637 11.3498 23.6634 11.387 23.6495 11.4201C23.6356 11.4533 23.6092 11.4797 23.576 11.4937L22.4347 11.9491C22.419 11.9566 22.4016 11.9602 22.3842 11.9597Z" fill="#231F20"/>
<path d="M34.6293 11.8589H34.5788L33.6876 11.5016C33.6539 11.488 33.6269 11.4618 33.6125 11.4286C33.598 11.3954 33.5973 11.3579 33.6104 11.3242C33.6169 11.3074 33.6266 11.292 33.6392 11.279C33.6517 11.266 33.6667 11.2556 33.6833 11.2484C33.6999 11.2413 33.7178 11.2375 33.7359 11.2373C33.754 11.2371 33.7719 11.2406 33.7887 11.2474L34.6825 11.6048C34.7157 11.6189 34.7421 11.6453 34.756 11.6784C34.7699 11.7115 34.7703 11.7488 34.757 11.7822C34.7456 11.806 34.7274 11.826 34.7047 11.8396C34.682 11.8532 34.6558 11.86 34.6293 11.8589Z" fill="#231F20"/>
</svg>
