<svg width="50" height="50" viewBox="0 0 50 50" fill="none" xmlns="http://www.w3.org/2000/svg">
<g clip-path="url(#clip0_987_114)">
<path d="M14.424 47.9463C14.9634 47.9463 15.4006 47.5091 15.4006 46.9697C15.4006 46.4304 14.9634 45.9932 14.424 45.9932C13.8847 45.9932 13.4474 46.4304 13.4474 46.9697C13.4474 47.5091 13.8847 47.9463 14.424 47.9463Z" fill="#0D4447"/>
<path d="M49.3305 42.0283L39.8388 26.6349C39.5485 26.1641 38.9316 26.0177 38.4605 26.3081L37.9791 26.605L35.7985 23.0686C39.8988 18.8912 40.7981 12.2972 37.5912 7.09628C33.8189 0.978603 25.7727 -0.929503 19.6555 2.84266C18.1674 3.76024 16.9291 4.93124 15.9604 6.26532H1.00156C0.448437 6.26532 0 6.71376 0 7.26688V47.0194C0 47.5726 0.448437 48.021 1.00156 48.021H9.94209C10.4952 48.021 10.9437 47.5725 10.9437 47.0194C10.9437 46.4662 10.4952 46.0179 9.94209 46.0179H2.00322V8.26854H14.7636C12.8998 12.1416 12.9833 16.8563 15.4018 20.7785C17.8625 24.7693 22.1413 26.9685 26.5178 26.9685C26.8919 26.9685 27.2667 26.9507 27.6411 26.9183V46.0179H18.9312C18.3781 46.0179 17.9297 46.4663 17.9297 47.0194C17.9297 47.5726 18.3781 48.021 18.9312 48.021H28.6427C29.1958 48.021 29.6442 47.5725 29.6442 47.0194V26.586C29.9236 26.5167 30.2018 26.4381 30.4781 26.3494L32.6586 29.8855L32.1771 30.1825C31.7063 30.4728 31.56 31.0898 31.8503 31.5607L41.3419 46.9541C42.1929 48.3341 43.6725 49.0946 45.1858 49.0946C45.9923 49.0946 46.8086 48.8785 47.544 48.4251L47.8595 48.2306H47.8596C49.9749 46.926 50.6348 44.1437 49.3305 42.0283ZM17.1068 19.7271C13.9145 14.5497 15.5293 7.74022 20.7067 4.54774C22.507 3.43768 24.5042 2.90897 26.4785 2.90897C30.182 2.90897 33.8037 4.7705 35.8861 8.14764C39.0785 13.3251 37.4638 20.1346 32.2863 23.327C27.1087 26.5196 20.2994 24.9046 17.1068 19.7271ZM32.3563 25.5786C32.688 25.4114 33.0157 25.2306 33.3376 25.0321C33.6594 24.8337 33.9688 24.6228 34.2671 24.4016L36.274 27.6563L34.3639 28.8342L32.3563 25.5786ZM38.6593 28.5389L45.5043 39.6397L40.926 42.4627L34.0812 31.3618L38.6593 28.5389ZM46.8081 46.5253L46.4928 46.7198C45.3176 47.4444 43.7718 47.0779 43.0471 45.9026L41.9773 44.1678L46.5557 41.3447L47.6254 43.0796C48.35 44.255 47.9834 45.8006 46.8081 46.5253Z" fill="#0D4447"/>
<path d="M35.0633 15.969C35.606 13.6807 35.2252 11.3181 33.9907 9.3162C31.4424 5.18358 26.0073 3.89471 21.8751 6.44286C17.7427 8.991 16.4537 14.426 19.0019 18.5584C20.6641 21.2542 23.5545 22.7396 26.5107 22.7396C28.0862 22.7396 29.6809 22.3175 31.1174 21.4316C33.1192 20.1974 34.5206 18.2574 35.0633 15.969ZM30.0661 19.7266C26.8737 21.6948 21.5951 20.4915 20.3377 16.8211H27.1441C27.6973 16.8211 28.1457 16.3726 28.1457 15.8195C28.1457 15.2663 27.6973 14.818 27.1441 14.818H19.7544C19.6679 14.1479 19.6825 13.4729 19.7932 12.8147H27.1441C27.6973 12.8147 28.1457 12.3663 28.1457 11.8132C28.1457 11.26 27.6973 10.8116 27.1441 10.8116H20.4582C21.0055 9.75008 21.838 8.81932 22.9266 8.14813C24.0365 7.46366 25.2679 7.13768 26.4851 7.13768C28.7686 7.13768 31.0017 8.28553 32.2856 10.3678C33.2392 11.9141 33.5333 13.7392 33.1142 15.507C32.6949 17.2745 31.6125 18.7731 30.0661 19.7266Z" fill="#0D4447"/>
<path d="M5.0427 16.7707H10.4511C11.0042 16.7707 11.4527 16.3223 11.4527 15.7691C11.4527 15.2159 11.0042 14.7676 10.4511 14.7676H5.0427C4.48958 14.7676 4.04114 15.216 4.04114 15.7691C4.04104 16.3223 4.48958 16.7707 5.0427 16.7707Z" fill="#0D4447"/>
<path d="M5.0427 20.7775H10.4511C11.0042 20.7775 11.4527 20.3291 11.4527 19.776C11.4527 19.2228 11.0042 18.7744 10.4511 18.7744H5.0427C4.48958 18.7744 4.04114 19.2229 4.04114 19.776C4.04104 20.3291 4.48958 20.7775 5.0427 20.7775Z" fill="#0D4447"/>
<path d="M5.0427 24.7844H13.6229C14.176 24.7844 14.6244 24.3359 14.6244 23.7828C14.6244 23.2297 14.176 22.7812 13.6229 22.7812H5.0427C4.48958 22.7812 4.04114 23.2297 4.04114 23.7828C4.04114 24.3359 4.48958 24.7844 5.0427 24.7844Z" fill="#0D4447"/>
<path d="M5.0427 28.7902H19.1318C19.6849 28.7902 20.1333 28.3418 20.1333 27.7887C20.1333 27.2355 19.6849 26.7871 19.1318 26.7871H5.0427C4.48958 26.7871 4.04114 27.2355 4.04114 27.7887C4.04114 28.3418 4.48958 28.7902 5.0427 28.7902Z" fill="#0D4447"/>
<path d="M5.0427 32.7971H24.6414C25.1946 32.7971 25.643 32.3486 25.643 31.7955C25.643 31.2424 25.1946 30.7939 24.6414 30.7939H5.0427C4.48958 30.7939 4.04114 31.2424 4.04114 31.7955C4.04114 32.3486 4.48958 32.7971 5.0427 32.7971Z" fill="#0D4447"/>
<path d="M5.0427 36.8029H24.6414C25.1946 36.8029 25.643 36.3545 25.643 35.8014C25.643 35.2482 25.1946 34.7998 24.6414 34.7998H5.0427C4.48958 34.7998 4.04114 35.2482 4.04114 35.8014C4.04114 36.3545 4.48958 36.8029 5.0427 36.8029Z" fill="#0D4447"/>
</g>
<defs>
<clipPath id="clip0_987_114">
<rect width="50" height="50" fill="white"/>
</clipPath>
</defs>
</svg>
