<svg width="23" height="28" viewBox="0 0 23 28" fill="none" xmlns="http://www.w3.org/2000/svg">
<g clip-path="url(#clip0_1016_1515)">
<path d="M2.32153 2.88359C2.37805 2.7035 2.48633 2.54403 2.63287 2.42507C2.7794 2.30611 2.95772 2.23291 3.14558 2.2146C3.38663 2.19617 3.6279 2.24732 3.84074 2.36198C4.05357 2.47665 4.22901 2.65 4.34621 2.86144C4.51678 3.10802 4.61896 3.39539 4.64236 3.69429C4.66577 3.9932 4.60955 4.29297 4.47945 4.56309C4.34934 4.8332 4.14998 5.06403 3.90167 5.23206C3.65336 5.40009 3.36496 5.49932 3.06583 5.51967C2.10444 5.63486 1.20507 5.4665 0.589251 4.63359C0.264415 4.21662 0.0638235 3.71645 0.0105308 3.19058C-0.0427619 2.66471 0.0534073 2.13447 0.287985 1.66081C0.495929 1.14397 0.860998 0.705528 1.33162 0.407413C1.80225 0.109298 2.35464 -0.0334217 2.91077 -0.000585991C8.49896 -0.000585991 14.0871 -0.000585991 19.6753 -0.000585991C20.2169 -0.0347434 20.7559 0.0976463 21.22 0.378799C21.6841 0.659951 22.051 1.0764 22.2715 1.5722C22.5172 2.03793 22.6278 2.56301 22.591 3.08826C22.5542 3.61351 22.3714 4.11804 22.0633 4.54498C21.6646 5.05557 21.0916 5.40117 20.454 5.51561C19.8164 5.63005 19.159 5.5053 18.6076 5.16524C18.3607 4.98208 18.1715 4.732 18.0624 4.44461C17.9532 4.15723 17.9287 3.84459 17.9918 3.54372C18.0175 3.25989 18.1213 2.98873 18.2918 2.76036C18.4623 2.53199 18.6928 2.35535 18.9576 2.25005C19.5203 2.01081 19.9766 2.25005 20.2867 2.86144C20.2867 2.86144 20.238 2.89688 20.2336 2.89245C19.7196 2.48486 19.2987 2.48486 18.9842 2.89245C18.8196 3.09877 18.7414 3.36093 18.7662 3.62372C18.791 3.88651 18.9168 4.12942 19.1171 4.30131C19.2265 4.3853 19.3516 4.44661 19.485 4.48165C19.6184 4.51668 19.7575 4.52474 19.8941 4.50535C20.0307 4.48596 20.162 4.4395 20.2804 4.36871C20.3988 4.29792 20.5018 4.20422 20.5836 4.09308C20.8046 3.76696 20.9107 3.37647 20.885 2.98333C20.8593 2.59019 20.7034 2.21681 20.4418 1.9222C20.1612 1.65468 19.7985 1.48984 19.4124 1.45445C19.0264 1.41906 18.6397 1.5152 18.3152 1.72726C18.0303 1.89631 17.7861 2.12608 17.6 2.40021C17.4139 2.67434 17.2905 2.98611 17.2386 3.31334C17.2076 3.53486 17.1234 3.61017 16.8975 3.60574C13.1553 3.60574 9.41309 3.60574 5.6709 3.60574C5.38292 3.60574 5.38292 3.44625 5.34748 3.24688C5.25017 2.76241 4.99367 2.32439 4.61877 2.00248C4.24387 1.68056 3.7721 1.49324 3.27849 1.4703C2.97213 1.4564 2.66901 1.53804 2.41106 1.70392C2.15311 1.8698 1.95308 2.11173 1.83862 2.39625C1.70696 2.68406 1.65956 3.00328 1.7019 3.31693C1.74425 3.63058 1.8746 3.9258 2.07786 4.1684C2.16878 4.27013 2.27889 4.35291 2.40187 4.412C2.52486 4.47108 2.65829 4.50531 2.79453 4.51272C2.93077 4.52013 3.06713 4.50057 3.19579 4.45517C3.32446 4.40977 3.4429 4.33942 3.54431 4.24815C3.72368 4.0548 3.82334 3.80081 3.82334 3.53707C3.82334 3.27334 3.72368 3.01935 3.54431 2.826C3.19874 2.48486 2.83988 2.51144 2.32596 2.88359" fill="#ED6710"/>
<path d="M11.3108 27.9992L1.77216 24.1093V7.40234H20.9114V24.4239L11.3108 27.9992ZM3.54431 22.922L11.3595 26.103L19.1481 23.1966V9.16564H3.54431V22.922Z" fill="#ED6710"/>
<path d="M17.4911 6.89803C17.4025 5.9012 17.3183 4.5012 17.2297 4.29297H5.37404C5.28543 4.49677 5.20125 5.9012 5.10822 6.89803H17.4911Z" fill="#ED6710"/>
<path d="M15.5772 10.5572C15.5772 11.0224 15.5772 11.4875 15.5772 11.9527C15.5772 14.162 15.5772 16.3772 15.5772 18.5983L16.6449 18.1553C16.6449 15.7274 16.6449 13.2981 16.6449 10.8673C16.6449 10.7654 16.6449 10.6591 16.6449 10.5527L15.5772 10.5572Z" fill="#ED6710"/>
<path d="M14.2083 10.5566H13.1627C13.1627 10.7427 13.1627 10.9288 13.1627 11.1193C13.1627 13.9311 13.1627 16.737 13.1627 19.537L14.2172 19.094C14.2172 17.3041 14.2172 15.5157 14.2172 13.7288C14.2482 12.7009 14.1773 11.6288 14.2083 10.5566Z" fill="#ED6710"/>
<path d="M11.869 10.5566H10.7924C10.7924 11.1902 10.7924 11.8282 10.7924 12.4573C10.7924 12.4927 10.7924 12.5282 10.7924 12.5636C10.7924 15.2218 10.7924 17.8712 10.7924 20.5117L11.8601 20.0687C11.8601 17.0914 11.8601 14.1098 11.8601 11.1326C11.8601 10.9509 11.8646 10.7516 11.869 10.5566Z" fill="#ED6710"/>
<path d="M9.45442 10.5566H8.38226C8.38421 10.5847 8.38421 10.6128 8.38226 10.6408C8.38226 14.256 8.38226 17.8682 8.38226 21.4775L9.44998 21.0345C9.44998 17.9155 9.44998 14.7936 9.44998 11.6687C9.45442 11.3098 9.44555 10.9332 9.45442 10.5566Z" fill="#ED6710"/>
<path d="M7.02216 10.5566H5.92786L5.95444 10.8978C5.98988 11.6598 5.95444 12.4218 5.95444 13.1839V20.3788C5.95444 21.0699 5.95444 21.7566 5.95444 22.4478L7.0133 22.0047C7.0133 18.4161 7.0133 14.826 7.0133 11.2345C7.01773 11.0263 7.01773 10.7915 7.02216 10.5566Z" fill="#ED6710"/>
</g>
<defs>
<clipPath id="clip0_1016_1515">
<rect width="22.5949" height="28" fill="white"/>
</clipPath>
</defs>
</svg>
