<svg width="48" height="48" viewBox="0 0 48 48" fill="none" xmlns="http://www.w3.org/2000/svg">
<circle cx="24" cy="24" r="24" fill="#218698"/>
<g clip-path="url(#clip0_3675_6149)">
<path fill-rule="evenodd" clip-rule="evenodd" d="M24.6745 12.2821L33.2799 17.2555C33.9299 17.6312 34.3018 18.2758 34.3018 19.0266V28.9734C34.3018 29.7242 33.9299 30.3688 33.2799 30.7444L24.6745 35.7179C24.0236 36.094 23.2782 36.094 22.6274 35.7179L14.022 30.7444C13.372 30.3688 13 29.7242 13 28.9734V19.0266C13 18.2758 13.3719 17.6312 14.022 17.2555L22.6274 12.2821C23.2782 11.9059 24.0236 11.9059 24.6745 12.2821Z" fill="#218698"/>
<path fill-rule="evenodd" clip-rule="evenodd" d="M22.6281 33.3359L19.3482 31.4422L15.0455 28.958V23.9897V20.2024L22.6281 24.5802V33.3359Z" fill="#ED6810"/>
<path fill-rule="evenodd" clip-rule="evenodd" d="M32.2563 20.2024V23.9897V28.958L27.9536 31.4422L24.6737 33.3359V24.5802L32.2563 20.2024Z" fill="white"/>
<path fill-rule="evenodd" clip-rule="evenodd" d="M23.651 14.0531L27.9536 16.5373L31.2335 18.431L23.651 22.8088L16.0684 18.431L19.3483 16.5373L23.651 14.0531Z" fill="white"/>
</g>
<defs>
<clipPath id="clip0_3675_6149">
<rect width="24" height="24" fill="white" transform="translate(12 12)"/>
</clipPath>
</defs>
</svg>
